<?xml version="1.0" encoding="UTF-8"?>
<svg width="35px" height="31px" viewBox="0 0 35 31" version="1.1" xmlns="http://www.w3.org/2000/svg" xmlns:xlink="http://www.w3.org/1999/xlink">
    <!-- Generator: sketchtool 49.3 (51167) - http://www.bohemiancoding.com/sketch -->
    <title>7B80F576-57EF-45F5-938B-8620A9676FD0</title>
    <desc>Created with sketchtool.</desc>
    <defs></defs>
    <g id="Symbols" stroke="none" stroke-width="1" fill="none" fill-rule="evenodd">
        <g id="ballance" fill="#ed1e79" fill-rule="nonzero">
            <g id="coin-stack">
                <path d="M10.1666432,18 C11.1500144,18 12.1005369,17.9378623 13,17.8221957 L13,8.17771906 C12.100624,8.06213774 11.1500144,8 10.1666432,8 C4.55177314,8 0,10.0195193 0,12.5108251 L0,13.4890897 C8.22179562e-16,15.9803103 4.55177314,18 10.1666432,18 Z" id="Shape"></path>
                <path d="M10.1666432,23 C11.1500144,23 12.1005369,22.9321743 13,22.806106 L13,19.7203637 C12.1003626,19.846525 11.1502758,19.915281 10.1666432,19.915281 C5.26547095,19.915281 1.17471297,18.235549 0.213821808,16 C0.0738878947,16.3256377 0,16.6628122 0,17.0084533 L0,18.0762657 C1.40259495e-15,20.7956192 4.55177314,23 10.1666432,23 Z" id="Shape"></path>
                <path d="M12.6313023,24.960219 L12.6313023,24.7203637 C11.7571799,24.846525 10.8340388,24.915281 9.8783034,24.915281 C5.11613504,24.915281 1.14139651,23.235549 0.207757532,21 C0.0717923336,21.3255446 0,21.6627191 0,22.0083602 L0,23.0761726 C0,25.7956192 4.42267867,28 9.8783034,28 C10.9693268,28 12.018697,27.9116126 13,27.7487938 C12.7567696,27.2020017 12.6313023,26.6253439 12.6313023,26.0279384 L12.6313023,24.960219 Z" id="Shape"></path>
                <path d="M24.5,0 C18.7010224,0 14,2.01953648 14,4.51086354 L14,5.48913646 C14,7.98046352 18.7010224,10 24.5,10 C30.2988876,10 35,7.98046352 35,5.48913646 L35,4.51086354 C35,2.01953648 30.2988876,0 24.5,0 Z" id="Shape"></path>
                <path d="M24.5,12.915281 C19.4381219,12.915281 15.2132309,11.235642 14.2208329,9 C14.0763106,9.32554461 14,9.66271914 14,10.0084533 L14,11.0762657 C14,13.7956192 18.7010224,16 24.5,16 C30.2988876,16 35,13.7956192 35,11.0762657 L35,10.0084533 C35,9.66271914 34.9236894,9.32554461 34.7791671,9 C33.7867691,11.235642 29.5618781,12.915281 24.5,12.915281 Z" id="Shape"></path>
                <path d="M24.5,17.915229 C19.4381219,17.915229 15.2132309,16.2355193 14.2208329,14 C14.0763106,14.3255403 14,14.6627103 14,15.0084399 L14,16.0762381 C14,18.7956485 18.7010224,21 24.5,21 C30.2988876,21 35,18.7956485 35,16.0762381 L35,15.0084399 C35,14.6627103 34.9236894,14.3255403 34.7791671,14 C33.7867691,16.2356123 29.5618781,17.915229 24.5,17.915229 Z" id="Shape"></path>
                <path d="M24.5,22.915281 C19.4381219,22.915281 15.2132309,21.235549 14.2208329,19 C14.0763106,19.3256377 14,19.6627191 14,20.0083602 L14,21.0762657 C14,23.7956192 18.7010224,26 24.5,26 C30.2988876,26 35,23.7956192 35,21.0762657 L35,20.0083602 C35,19.6627191 34.9236894,19.3254516 34.7791671,19 C33.7867691,21.235456 29.5618781,22.915281 24.5,22.915281 Z" id="Shape"></path>
                <path d="M24.5,27.915281 C19.4381219,27.915281 15.2132309,26.235642 14.2208329,24.000093 C14.0763106,24.3257307 14,24.6629983 14,25.0084533 L14,26.0762657 C14,28.7956192 18.7010224,31 24.5,31 C30.2988876,31 35,28.7956192 35,26.0762657 L35,25.0083602 C35,24.6627191 34.9236894,24.3254516 34.7791671,24 C33.7867691,26.235549 29.5618781,27.915281 24.5,27.915281 Z" id="Shape"></path>
            </g>
        </g>
    </g>
</svg>