<?xml version="1.0" encoding="UTF-8"?>
<svg width="10px" height="10px" viewBox="0 0 10 10" version="1.1" xmlns="http://www.w3.org/2000/svg" xmlns:xlink="http://www.w3.org/1999/xlink">
    <!-- Generator: Sketch 50.2 (55047) - http://www.bohemiancoding.com/sketch -->
    <title>Group 3</title>
    <desc>Created with Sketch.</desc>
    <defs></defs>
    <g id="Genesis" stroke="none" stroke-width="1" fill="none" fill-rule="evenodd">
        <g id="alternative-index-copy-4" transform="translate(-950.000000, -51.000000)" fill="#818181" fill-rule="nonzero">
            <g id="Group-3" transform="translate(950.000000, 51.000000)">
                <path d="M5,0 C2.24300124,0 0,2.24300124 0,5 C0,7.75699876 2.24300124,10 5,10 C7.75699876,10 10,7.75699876 10,5 C10,2.24300124 7.75699876,0 5,0 Z M5,8.93608481 C2.82966241,8.93608481 1.06381227,7.17044051 1.06381227,5 C1.06381227,2.82955949 2.82966241,1.06391519 5,1.06391519 C7.17033759,1.06391519 8.93618773,2.82955949 8.93618773,5 C8.93618773,7.17044051 7.17033759,8.93608481 5,8.93608481 Z" id="Shape"></path>
                <path d="M6.64530622,5.16339869 L4.70938756,5.16339869 L4.70938756,2.41830065 C4.70938756,2.18729412 4.55057342,2 4.35469378,2 C4.15881414,2 4,2.18729412 4,2.41830065 L4,5.58169935 C4,5.81270588 4.15881414,6 4.35469378,6 L6.64530622,6 C6.84118586,6 7,5.81270588 7,5.58169935 C7,5.35069281 6.84118586,5.16339869 6.64530622,5.16339869 Z" id="Shape"></path>
            </g>
        </g>
    </g>
</svg>